{
  "data":[
    {
      "name":"Samsung Galaxy Grand",
      "year":"2014",
      "company":"Samsung",
      "Country":"Korea",
      "Origin":"USA"
    },
    {
      "name":"Huawei P9",
      "year":"2015",
      "company":"Huawei",
      "Country":"China",
      "Origin":"China"
    },{
      "name":"Samsung Galaxy Note3",
      "year":"2016",
      "company":"Samsung",
      "Country":"China",
      "Origin":"USA"
    },{
      "name":"Samsung Galaxy S5",
      "year":"2014",
      "company":"Samsung",
      "Country":"China",
      "Origin":"USA"
    },{
      "name":"Oppo lite",
      "year":"2015",
      "company":"Oppo",
      "Country":"China",
      "Origin":"China"
    },{
      "name":"Nokia Lumia",
      "year":"2014",
      "company":"Nokia",
      "Country":"China",
      "Origin":"Phinland"
    },{
      "name":"Nokia 5800",
      "year":"2008",
      "company":"Nokia",
      "Country":"Korea",
      "Origin":"Phinland"
    },{
      "name":"Samsung Galaxy S6",
      "year":"2016",
      "company":"Samsung",
      "Country":"China",
      "Origin":"USA"
    }
  ]
}
